[gd_resource type="Theme" load_steps=2 format=3 uid="uid://dr2k7darrdqp8"]

[ext_resource type="FontFile" uid="uid://knnyha74hnir" path="res://fonts/Beckman-FREE.otf" id="1_x2bow"]

[resource]
default_font = ExtResource("1_x2bow")
default_font_size = 72
